<?xml version="1.0" encoding="UTF-8" standalone="no"?>
<!DOCTYPE svg PUBLIC "-//W3C//DTD SVG 1.1//EN"
 "http://www.w3.org/Graphics/SVG/1.1/DTD/svg11.dtd">
<!-- Generated by graphviz version 2.40.1 (20161225.0304)
 -->
<!-- Title: callgraph Pages: 1 -->
<svg width="528pt" height="714pt"
 viewBox="0.00 0.00 760.00 1027.56" xmlns="http://www.w3.org/2000/svg" xmlns:xlink="http://www.w3.org/1999/xlink">
<g id="graph0" class="graph" transform="scale(.6944 .6944) rotate(0) translate(4 1023.5559)">
<title>callgraph</title>
<polygon fill="#ffffff" stroke="transparent" points="-4,4 -4,-1023.5559 756,-1023.5559 756,4 -4,4"/>
<g id="clust1" class="cluster">
<title>cluster</title>
<polygon fill="#ffffff" stroke="#ffffff" points="8,-299.0559 8,-699.0559 713.5,-699.0559 713.5,-299.0559 8,-299.0559"/>
<text text-anchor="middle" x="360.75" y="-693.2559" font-family="Bitstream Vera Sans" font-size="1.00" fill="#000000">Cores</text>
</g>
<!-- Inicializa -->
<g id="node1" class="node">
<title>Inicializa</title>
<g id="a_node1"><a xlink:href="Lista.html" xlink:title="\N" target="_top">
<polygon fill="#fda0ea" stroke="#000000" points="331,-587.5559 331,-624.5559 461,-624.5559 461,-587.5559 331,-587.5559"/>
<text text-anchor="middle" x="396" y="-599.7559" font-family="sans" font-size="26.00" fill="#000000">Inicializa</text>
</a>
</g>
</g>
<!-- fopen -->
<g id="node2" class="node">
<title>fopen</title>
<polygon fill="#f2f2f2" stroke="#000000" points="613.5,-254.0559 613.5,-290.0559 681.5,-290.0559 681.5,-254.0559 613.5,-254.0559"/>
<text text-anchor="middle" x="647.5" y="-267.6559" font-family="Bitstream Vera Sans" font-size="18.00" fill="#000000">fopen</text>
</g>
<!-- Inicializa&#45;&gt;fopen -->
<g id="edge1" class="edge">
<title>Inicializa&#45;&gt;fopen</title>
<path fill="none" stroke="#000000" d="M461.1035,-602.7562C478.2784,-598.712 495.2688,-591.2942 507,-578.0559 591.0907,-483.1622 457.4741,-388.6581 543,-295.0559 558.0759,-278.5563 582.0626,-272.4853 603.2545,-270.6849"/>
<polygon fill="#000000" stroke="#000000" points="603.5936,-274.1715 613.382,-270.1171 603.2017,-267.1824 603.5936,-274.1715"/>
</g>
<!-- fclose -->
<g id="node3" class="node">
<title>fclose</title>
<polygon fill="#f2f2f2" stroke="#000000" points="612.5,-199.0559 612.5,-235.0559 682.5,-235.0559 682.5,-199.0559 612.5,-199.0559"/>
<text text-anchor="middle" x="647.5" y="-212.6559" font-family="Bitstream Vera Sans" font-size="18.00" fill="#000000">fclose</text>
</g>
<!-- Inicializa&#45;&gt;fclose -->
<g id="edge2" class="edge">
<title>Inicializa&#45;&gt;fclose</title>
<path fill="none" stroke="#000000" d="M461.2661,-602.8989C478.4445,-598.8578 495.3961,-591.406 507,-578.0559 604.9467,-465.3696 445.3775,-357.0231 543,-244.0559 557.5827,-227.181 581.1946,-220.1612 602.2874,-217.4801"/>
<polygon fill="#000000" stroke="#000000" points="602.779,-220.9488 612.3891,-216.4884 602.095,-213.9823 602.779,-220.9488"/>
</g>
<!-- free -->
<g id="node4" class="node">
<title>free</title>
<polygon fill="#f2f2f2" stroke="#000000" points="620.5,-144.0559 620.5,-180.0559 674.5,-180.0559 674.5,-144.0559 620.5,-144.0559"/>
<text text-anchor="middle" x="647.5" y="-157.6559" font-family="Bitstream Vera Sans" font-size="18.00" fill="#000000">free</text>
</g>
<!-- Inicializa&#45;&gt;free -->
<g id="edge3" class="edge">
<title>Inicializa&#45;&gt;free</title>
<path fill="none" stroke="#000000" d="M461.1055,-603.0779C478.3861,-599.0553 495.4325,-591.5686 507,-578.0559 563.4558,-512.106 486.7339,-255.1677 543,-189.0559 559.3241,-169.8753 587.3149,-163.393 610.2209,-161.5621"/>
<polygon fill="#000000" stroke="#000000" points="610.5294,-165.0507 620.3273,-161.0193 610.1539,-158.0608 610.5294,-165.0507"/>
</g>
<!-- access -->
<g id="node5" class="node">
<title>access</title>
<polygon fill="#f2f2f2" stroke="#000000" points="608.5,-928.0559 608.5,-964.0559 686.5,-964.0559 686.5,-928.0559 608.5,-928.0559"/>
<text text-anchor="middle" x="647.5" y="-941.6559" font-family="Bitstream Vera Sans" font-size="18.00" fill="#000000">access</text>
</g>
<!-- Inicializa&#45;&gt;access -->
<g id="edge4" class="edge">
<title>Inicializa&#45;&gt;access</title>
<path fill="none" stroke="#000000" d="M461.111,-609.3489C478.286,-613.393 495.2746,-620.8124 507,-634.0559 591.6335,-729.6467 458.6415,-823.2222 543,-919.0559 556.822,-934.758 578.4619,-941.8998 598.4725,-944.9612"/>
<polygon fill="#000000" stroke="#000000" points="598.0774,-948.4389 608.4297,-946.1851 598.9314,-941.4912 598.0774,-948.4389"/>
</g>
<!-- asprintf -->
<g id="node6" class="node">
<title>asprintf</title>
<g id="a_node6"><a xlink:href="asprintf.html" xlink:title="\N" target="_top">
<polygon fill="#00ced1" stroke="#000000" points="589.5,-503.5559 589.5,-540.5559 705.5,-540.5559 705.5,-503.5559 589.5,-503.5559"/>
<text text-anchor="middle" x="647.5" y="-515.7559" font-family="sans" font-size="26.00" fill="#000000">asprintf</text>
</a>
</g>
</g>
<!-- Inicializa&#45;&gt;asprintf -->
<g id="edge5" class="edge">
<title>Inicializa&#45;&gt;asprintf</title>
<path fill="none" stroke="#000000" d="M461.2679,-591.122C476.3923,-587.2397 492.3465,-582.8013 507,-578.0559 536.9247,-568.3648 569.6075,-555.4817 595.915,-544.5157"/>
<polygon fill="#000000" stroke="#000000" points="597.4383,-547.6721 605.3019,-540.5718 594.7268,-541.2186 597.4383,-547.6721"/>
</g>
<!-- GetSystemTime@4 -->
<g id="node7" class="node">
<title>GetSystemTime@4</title>
<polygon fill="#f2f2f2" stroke="#000000" points="553,-983.0559 553,-1019.0559 742,-1019.0559 742,-983.0559 553,-983.0559"/>
<text text-anchor="middle" x="647.5" y="-996.6559" font-family="Bitstream Vera Sans" font-size="18.00" fill="#000000">GetSystemTime@4</text>
</g>
<!-- Inicializa&#45;&gt;GetSystemTime@4 -->
<g id="edge6" class="edge">
<title>Inicializa&#45;&gt;GetSystemTime@4</title>
<path fill="none" stroke="#000000" d="M461.2822,-609.1989C478.4609,-613.2397 495.4087,-620.6948 507,-634.0559 606.5783,-748.8371 443.7519,-858.989 543,-974.0559 543.7343,-974.9072 544.4916,-975.7335 545.2704,-976.5354"/>
<polygon fill="#000000" stroke="#000000" points="542.9814,-979.1832 552.8202,-983.1138 547.58,-973.9055 542.9814,-979.1832"/>
</g>
<!-- fwrite -->
<g id="node8" class="node">
<title>fwrite</title>
<polygon fill="#f2f2f2" stroke="#000000" points="613.5,-873.0559 613.5,-909.0559 681.5,-909.0559 681.5,-873.0559 613.5,-873.0559"/>
<text text-anchor="middle" x="647.5" y="-886.6559" font-family="Bitstream Vera Sans" font-size="18.00" fill="#000000">fwrite</text>
</g>
<!-- Inicializa&#45;&gt;fwrite -->
<g id="edge7" class="edge">
<title>Inicializa&#45;&gt;fwrite</title>
<path fill="none" stroke="#000000" d="M461.1516,-609.6409C478.2232,-613.7043 495.1467,-621.0608 507,-634.0559 576.7267,-710.4991 473.4932,-787.4126 543,-864.0559 558.1448,-880.7556 582.1355,-887.7221 603.3125,-890.4156"/>
<polygon fill="#000000" stroke="#000000" points="603.1349,-893.915 613.4313,-891.4185 603.8253,-886.9492 603.1349,-893.915"/>
</g>
<!-- Preenche -->
<g id="node9" class="node">
<title>Preenche</title>
<g id="a_node9"><a xlink:href="Lista.html" xlink:title="\N" target="_top">
<polygon fill="#fda0ea" stroke="#000000" points="327,-475.5559 327,-512.5559 465,-512.5559 465,-475.5559 327,-475.5559"/>
<text text-anchor="middle" x="396" y="-487.7559" font-family="sans" font-size="26.00" fill="#000000">Preenche</text>
</a>
</g>
</g>
<!-- Preenche&#45;&gt;free -->
<g id="edge8" class="edge">
<title>Preenche&#45;&gt;free</title>
<path fill="none" stroke="#000000" d="M465.1272,-489.7179C480.896,-485.4892 496.1749,-478.2383 507,-466.0559 589.4624,-373.2534 460.8046,-282.0949 543,-189.0559 559.5681,-170.302 587.2885,-163.767 610.0167,-161.8061"/>
<polygon fill="#000000" stroke="#000000" points="610.2796,-165.2967 620.0501,-161.1996 609.8571,-158.3094 610.2796,-165.2967"/>
</g>
<!-- Preenche&#45;&gt;asprintf -->
<g id="edge11" class="edge">
<title>Preenche&#45;&gt;asprintf</title>
<path fill="none" stroke="#000000" d="M465.0561,-501.744C500.5267,-505.693 543.6089,-510.4894 578.9995,-514.4296"/>
<polygon fill="#000000" stroke="#000000" points="578.9145,-517.9416 589.2404,-515.5697 579.6891,-510.9846 578.9145,-517.9416"/>
</g>
<!-- SendMessageA@16 -->
<g id="node10" class="node">
<title>SendMessageA@16</title>
<polygon fill="#f2f2f2" stroke="#000000" points="550.5,-89.0559 550.5,-125.0559 744.5,-125.0559 744.5,-89.0559 550.5,-89.0559"/>
<text text-anchor="middle" x="647.5" y="-102.6559" font-family="Bitstream Vera Sans" font-size="18.00" fill="#000000">SendMessageA@16</text>
</g>
<!-- Preenche&#45;&gt;SendMessageA@16 -->
<g id="edge9" class="edge">
<title>Preenche&#45;&gt;SendMessageA@16</title>
<path fill="none" stroke="#000000" d="M465.0188,-489.9532C480.8867,-485.7332 496.2396,-478.4275 507,-466.0559 604.4029,-354.0678 445.9193,-246.3233 543,-134.0559 543.6167,-133.3427 544.2494,-132.6472 544.8975,-131.9689"/>
<polygon fill="#000000" stroke="#000000" points="547.2178,-134.5892 552.3846,-125.3397 542.5774,-129.3483 547.2178,-134.5892"/>
</g>
<!-- strstr -->
<g id="node11" class="node">
<title>strstr</title>
<polygon fill="#f2f2f2" stroke="#000000" points="615,-763.0559 615,-799.0559 680,-799.0559 680,-763.0559 615,-763.0559"/>
<text text-anchor="middle" x="647.5" y="-776.6559" font-family="Bitstream Vera Sans" font-size="18.00" fill="#000000">strstr</text>
</g>
<!-- Preenche&#45;&gt;strstr -->
<g id="edge10" class="edge">
<title>Preenche&#45;&gt;strstr</title>
<path fill="none" stroke="#000000" d="M465.2083,-498.6581C480.8794,-502.8936 496.0922,-510.0815 507,-522.0559 577.2678,-599.1943 472.9541,-676.7159 543,-754.0559 558.4581,-771.1236 583.1561,-778.0268 604.6608,-780.5911"/>
<polygon fill="#000000" stroke="#000000" points="604.6297,-784.1028 614.9066,-781.527 605.2665,-777.1318 604.6297,-784.1028"/>
</g>
<!-- ArqNovo -->
<g id="node12" class="node">
<title>ArqNovo</title>
<g id="a_node12"><a xlink:href="Lista.html" xlink:title="\N" target="_top">
<polygon fill="#fda0ea" stroke="#000000" points="332,-643.5559 332,-680.5559 460,-680.5559 460,-643.5559 332,-643.5559"/>
<text text-anchor="middle" x="396" y="-655.7559" font-family="sans" font-size="26.00" fill="#000000">ArqNovo</text>
</a>
</g>
</g>
<!-- ArqNovo&#45;&gt;asprintf -->
<g id="edge13" class="edge">
<title>ArqNovo&#45;&gt;asprintf</title>
<path fill="none" stroke="#000000" d="M460.1821,-650.787C475.9637,-646.698 492.4864,-641.2475 507,-634.0559 551.7738,-611.8699 595.5263,-573.5963 622.0048,-548.0549"/>
<polygon fill="#000000" stroke="#000000" points="624.6262,-550.3867 629.3255,-540.891 619.7303,-545.3836 624.6262,-550.3867"/>
</g>
<!-- ArqNovo&#45;&gt;GetSystemTime@4 -->
<g id="edge12" class="edge">
<title>ArqNovo&#45;&gt;GetSystemTime@4</title>
<path fill="none" stroke="#000000" d="M399.1524,-680.8882C409.278,-735.2846 446.1546,-893.8541 543,-974.0559 544.5424,-975.3332 546.1381,-976.5509 547.7801,-977.7118"/>
<polygon fill="#000000" stroke="#000000" points="546.0054,-980.7299 556.3419,-983.0553 549.7116,-974.7915 546.0054,-980.7299"/>
</g>
<!-- Grava -->
<g id="node13" class="node">
<title>Grava</title>
<g id="a_node13"><a xlink:href="Lista.html" xlink:title="\N" target="_top">
<polygon fill="#fda0ea" stroke="#000000" points="348.5,-531.5559 348.5,-568.5559 443.5,-568.5559 443.5,-531.5559 348.5,-531.5559"/>
<text text-anchor="middle" x="396" y="-543.7559" font-family="sans" font-size="26.00" fill="#000000">Grava</text>
</a>
</g>
</g>
<!-- Grava&#45;&gt;fopen -->
<g id="edge18" class="edge">
<title>Grava&#45;&gt;fopen</title>
<path fill="none" stroke="#000000" d="M443.6349,-549.5808C465.9374,-546.791 491.0441,-539.5133 507,-522.0559 575.9153,-446.6552 472.9446,-369.3983 543,-295.0559 558.2184,-278.9062 581.9872,-272.8201 603.0134,-270.9222"/>
<polygon fill="#000000" stroke="#000000" points="603.3005,-274.4112 613.0656,-270.3012 602.8688,-267.4245 603.3005,-274.4112"/>
</g>
<!-- Grava&#45;&gt;fclose -->
<g id="edge20" class="edge">
<title>Grava&#45;&gt;fclose</title>
<path fill="none" stroke="#000000" d="M443.5684,-549.8089C465.9944,-547.0936 491.2285,-539.8132 507,-522.0559 589.7337,-428.9049 460.5343,-337.4442 543,-244.0559 557.7092,-227.3984 581.2165,-220.38 602.2137,-217.6446"/>
<polygon fill="#000000" stroke="#000000" points="602.6755,-221.1158 612.2702,-216.6224 601.9675,-214.1517 602.6755,-221.1158"/>
</g>
<!-- Grava&#45;&gt;free -->
<g id="edge19" class="edge">
<title>Grava&#45;&gt;free</title>
<path fill="none" stroke="#000000" d="M443.7289,-549.9499C466.195,-547.2699 491.4166,-539.9785 507,-522.0559 604.6748,-409.7187 445.6484,-301.6732 543,-189.0559 559.4714,-170.0016 587.4548,-163.513 610.3205,-161.6476"/>
<polygon fill="#000000" stroke="#000000" points="610.6161,-165.1367 620.4066,-161.0874 610.2278,-158.1475 610.6161,-165.1367"/>
</g>
<!-- Grava&#45;&gt;asprintf -->
<g id="edge16" class="edge">
<title>Grava&#45;&gt;asprintf</title>
<path fill="none" stroke="#000000" d="M443.6009,-544.7563C481.9657,-540.4851 536.4091,-534.4238 579.3889,-529.6388"/>
<polygon fill="#000000" stroke="#000000" points="579.9393,-533.0992 589.4906,-528.5142 579.1647,-526.1422 579.9393,-533.0992"/>
</g>
<!-- Grava&#45;&gt;fwrite -->
<g id="edge15" class="edge">
<title>Grava&#45;&gt;fwrite</title>
<path fill="none" stroke="#000000" d="M443.5954,-550.2789C466.0281,-552.9882 491.2602,-560.2704 507,-578.0559 591.905,-673.9953 458.371,-767.8728 543,-864.0559 557.8922,-880.9812 581.8678,-887.9613 603.0996,-890.6057"/>
<polygon fill="#000000" stroke="#000000" points="602.9616,-894.1085 613.2503,-891.5802 603.6305,-887.1405 602.9616,-894.1085"/>
</g>
<!-- Grava&#45;&gt;SendMessageA@16 -->
<g id="edge17" class="edge">
<title>Grava&#45;&gt;SendMessageA@16</title>
<path fill="none" stroke="#000000" d="M443.563,-550.0834C466.1293,-547.4563 491.4884,-540.1717 507,-522.0559 563.3197,-456.2807 486.8696,-199.9925 543,-134.0559 543.5238,-133.4405 544.0596,-132.8383 544.6069,-132.2488"/>
<polygon fill="#000000" stroke="#000000" points="547.2433,-134.5841 552.3216,-125.2856 542.5531,-129.3877 547.2433,-134.5841"/>
</g>
<!-- GetWindowTextA@12 -->
<g id="node14" class="node">
<title>GetWindowTextA@12</title>
<polygon fill="#f2f2f2" stroke="#000000" points="543,-818.0559 543,-854.0559 752,-854.0559 752,-818.0559 543,-818.0559"/>
<text text-anchor="middle" x="647.5" y="-831.6559" font-family="Bitstream Vera Sans" font-size="18.00" fill="#000000">GetWindowTextA@12</text>
</g>
<!-- Grava&#45;&gt;GetWindowTextA@12 -->
<g id="edge14" class="edge">
<title>Grava&#45;&gt;GetWindowTextA@12</title>
<path fill="none" stroke="#000000" d="M443.655,-550.5126C465.9624,-553.2978 491.0675,-560.577 507,-578.0559 576.9973,-654.8467 473.2237,-732.0642 543,-809.0559 543.755,-809.8889 544.532,-810.6978 545.3296,-811.4831"/>
<polygon fill="#000000" stroke="#000000" points="543.1121,-814.1913 553.024,-817.9336 547.6092,-808.8269 543.1121,-814.1913"/>
</g>
<!-- Rodape -->
<g id="node15" class="node">
<title>Rodape</title>
<g id="a_node15"><a xlink:href="Lista.html" xlink:title="\N" target="_top">
<polygon fill="#fda0ea" stroke="#000000" points="75.5,-363.5559 75.5,-400.5559 189.5,-400.5559 189.5,-363.5559 75.5,-363.5559"/>
<text text-anchor="middle" x="132.5" y="-375.7559" font-family="sans" font-size="26.00" fill="#000000">Rodape</text>
</a>
</g>
</g>
<!-- CreateWindowExA@48 -->
<g id="node16" class="node">
<title>CreateWindowExA@48</title>
<polygon fill="#f2f2f2" stroke="#000000" points="285,-48.0559 285,-84.0559 507,-84.0559 507,-48.0559 285,-48.0559"/>
<text text-anchor="middle" x="396" y="-61.6559" font-family="Bitstream Vera Sans" font-size="18.00" fill="#000000">CreateWindowExA@48</text>
</g>
<!-- Rodape&#45;&gt;CreateWindowExA@48 -->
<g id="edge21" class="edge">
<title>Rodape&#45;&gt;CreateWindowExA@48</title>
<path fill="none" stroke="#000000" d="M189.7708,-381.4067C211.254,-378.1505 234.0578,-370.5525 249,-354.0559 327.6111,-267.2671 206.5079,-179.9523 285,-93.0559 285.6398,-92.3476 286.2947,-91.6564 286.9641,-90.9819"/>
<polygon fill="#000000" stroke="#000000" points="289.3471,-93.5488 294.6492,-84.3761 284.7842,-88.2403 289.3471,-93.5488"/>
</g>
<!-- GetWindowLongA@8 -->
<g id="node17" class="node">
<title>GetWindowLongA@8</title>
<polygon fill="#f2f2f2" stroke="#000000" points="293.5,-103.0559 293.5,-139.0559 498.5,-139.0559 498.5,-103.0559 293.5,-103.0559"/>
<text text-anchor="middle" x="396" y="-116.6559" font-family="Bitstream Vera Sans" font-size="18.00" fill="#000000">GetWindowLongA@8</text>
</g>
<!-- Rodape&#45;&gt;GetWindowLongA@8 -->
<g id="edge22" class="edge">
<title>Rodape&#45;&gt;GetWindowLongA@8</title>
<path fill="none" stroke="#000000" d="M189.7727,-381.0846C211.1251,-377.764 233.8349,-370.2055 249,-354.0559 312.623,-286.3024 221.4699,-215.8964 285,-148.0559 285.7795,-147.2235 286.58,-146.4149 287.4001,-145.6294"/>
<polygon fill="#000000" stroke="#000000" points="289.7654,-148.216 295.2756,-139.1668 285.3249,-142.8047 289.7654,-148.216"/>
</g>
<!-- PreencheListBox -->
<g id="node18" class="node">
<title>PreencheListBox</title>
<g id="a_node18"><a xlink:href="Lista.html" xlink:title="\N" target="_top">
<polygon fill="#fda0ea" stroke="#000000" points="16,-475.5559 16,-512.5559 249,-512.5559 249,-475.5559 16,-475.5559"/>
<text text-anchor="middle" x="132.5" y="-487.7559" font-family="sans" font-size="26.00" fill="#000000">PreencheListBox</text>
</a>
</g>
</g>
<!-- PreencheListBox&#45;&gt;Preenche -->
<g id="edge24" class="edge">
<title>PreencheListBox&#45;&gt;Preenche</title>
<path fill="none" stroke="#000000" stroke-dasharray="1,5" d="M249.2256,-494.0559C271.9394,-494.0559 295.2567,-494.0559 316.4296,-494.0559"/>
<polygon fill="#000000" stroke="#000000" points="316.6393,-497.5559 326.6393,-494.0559 316.6392,-490.5559 316.6393,-497.5559"/>
</g>
<!-- PreencheListBox&#45;&gt;SendMessageA@16 -->
<g id="edge25" class="edge">
<title>PreencheListBox&#45;&gt;SendMessageA@16</title>
<path fill="none" stroke="#000000" d="M238.2681,-475.4162C242.1414,-472.6712 245.7488,-469.5658 249,-466.0559 317.5204,-392.0811 214.2208,-313.8724 285,-242.0559 355.3191,-170.7061 426.1663,-262.2291 507,-203.0559 534.9105,-182.6243 515.9175,-155.5728 543,-134.0559 544.5955,-132.7882 546.244,-131.5796 547.9382,-130.4272"/>
<polygon fill="#000000" stroke="#000000" points="549.9916,-133.2764 556.7552,-125.1213 546.3823,-127.2786 549.9916,-133.2764"/>
</g>
<!-- Dir -->
<g id="node19" class="node">
<title>Dir</title>
<g id="a_node19"><a xlink:href="Dir.html" xlink:title="\N" target="_top">
<polygon fill="#dbf56e" stroke="#000000" points="368.5,-307.5559 368.5,-344.5559 423.5,-344.5559 423.5,-307.5559 368.5,-307.5559"/>
<text text-anchor="middle" x="396" y="-319.7559" font-family="sans" font-size="26.00" fill="#000000">Dir</text>
</a>
</g>
</g>
<!-- PreencheListBox&#45;&gt;Dir -->
<g id="edge23" class="edge">
<title>PreencheListBox&#45;&gt;Dir</title>
<path fill="none" stroke="#000000" d="M236.5706,-475.4434C241.0081,-472.7053 245.1872,-469.5924 249,-466.0559 287.3342,-430.4986 246.866,-389.8277 285,-354.0559 304.5713,-335.6969 334.3751,-328.9149 358.1735,-326.6049"/>
<polygon fill="#000000" stroke="#000000" points="358.5797,-330.0845 368.2916,-325.8502 358.0589,-323.1038 358.5797,-330.0845"/>
</g>
<!-- SetFocus@4 -->
<g id="node20" class="node">
<title>SetFocus@4</title>
<polygon fill="#f2f2f2" stroke="#000000" points="332.5,-252.0559 332.5,-288.0559 459.5,-288.0559 459.5,-252.0559 332.5,-252.0559"/>
<text text-anchor="middle" x="396" y="-265.6559" font-family="Bitstream Vera Sans" font-size="18.00" fill="#000000">SetFocus@4</text>
</g>
<!-- PreencheListBox&#45;&gt;SetFocus@4 -->
<g id="edge26" class="edge">
<title>PreencheListBox&#45;&gt;SetFocus@4</title>
<path fill="none" stroke="#000000" d="M237.8039,-475.3942C241.8294,-472.6589 245.5928,-469.5612 249,-466.0559 303.1335,-410.3642 230.4685,-350.3579 285,-295.0559 295.1421,-284.7704 308.5469,-278.3211 322.523,-274.3557"/>
<polygon fill="#000000" stroke="#000000" points="323.3661,-277.7527 332.2569,-271.9905 321.7132,-270.9506 323.3661,-277.7527"/>
</g>
<!-- Le -->
<g id="node21" class="node">
<title>Le</title>
<g id="a_node21"><a xlink:href="Lista.html" xlink:title="\N" target="_top">
<polygon fill="#fda0ea" stroke="#000000" points="369,-419.5559 369,-456.5559 423,-456.5559 423,-419.5559 369,-419.5559"/>
<text text-anchor="middle" x="396" y="-431.7559" font-family="sans" font-size="26.00" fill="#000000">Le</text>
</a>
</g>
</g>
<!-- Le&#45;&gt;fopen -->
<g id="edge31" class="edge">
<title>Le&#45;&gt;fopen</title>
<path fill="none" stroke="#000000" d="M423.2654,-438.3257C448.1788,-437.0922 484.4685,-431.3536 507,-410.0559 545.9211,-373.266 503.5232,-331.2488 543,-295.0559 559.165,-280.2355 582.644,-274.1928 603.2536,-271.9838"/>
<polygon fill="#000000" stroke="#000000" points="603.717,-275.458 613.4047,-271.1687 603.1566,-268.4804 603.717,-275.458"/>
</g>
<!-- Le&#45;&gt;fclose -->
<g id="edge29" class="edge">
<title>Le&#45;&gt;fclose</title>
<path fill="none" stroke="#000000" d="M423.2297,-438.7959C448.4749,-437.9358 485.3092,-432.4865 507,-410.0559 559.4789,-355.7868 490.6773,-298.4754 543,-244.0559 558.2208,-228.2251 581.4072,-221.2304 602.0757,-218.2992"/>
<polygon fill="#000000" stroke="#000000" points="602.7447,-221.7458 612.2853,-217.1385 601.9539,-214.7906 602.7447,-221.7458"/>
</g>
<!-- Le&#45;&gt;free -->
<g id="edge32" class="edge">
<title>Le&#45;&gt;free</title>
<path fill="none" stroke="#000000" d="M423.0104,-439.0583C448.4608,-438.4338 485.7663,-433.1901 507,-410.0559 574.293,-336.7397 475.9179,-262.565 543,-189.0559 559.8683,-170.5715 587.5756,-164.0248 610.2227,-161.9911"/>
<polygon fill="#000000" stroke="#000000" points="610.4606,-165.4831 620.215,-161.3476 610.0107,-158.4976 610.4606,-165.4831"/>
</g>
<!-- Le&#45;&gt;asprintf -->
<g id="edge27" class="edge">
<title>Le&#45;&gt;asprintf</title>
<path fill="none" stroke="#000000" d="M423.1993,-443.8599C445.8471,-448.9438 478.8275,-456.9323 507,-466.0559 536.9247,-475.7469 569.6075,-488.63 595.915,-499.596"/>
<polygon fill="#000000" stroke="#000000" points="594.7268,-502.8931 605.3019,-503.5399 597.4383,-496.4396 594.7268,-502.8931"/>
</g>
<!-- Le&#45;&gt;SendMessageA@16 -->
<g id="edge33" class="edge">
<title>Le&#45;&gt;SendMessageA@16</title>
<path fill="none" stroke="#000000" d="M423.1732,-439.2053C448.7442,-438.6898 486.1365,-433.5246 507,-410.0559 589.191,-317.6018 461.075,-226.7456 543,-134.0559 543.7446,-133.2134 544.5116,-132.3957 545.2997,-131.6019"/>
<polygon fill="#000000" stroke="#000000" points="547.5947,-134.2447 552.9212,-125.0862 543.0459,-128.924 547.5947,-134.2447"/>
</g>
<!-- SetWindowTextA@8 -->
<g id="node22" class="node">
<title>SetWindowTextA@8</title>
<polygon fill="#f2f2f2" stroke="#000000" points="550,-18.0559 550,-54.0559 745,-54.0559 745,-18.0559 550,-18.0559"/>
<text text-anchor="middle" x="647.5" y="-31.6559" font-family="Bitstream Vera Sans" font-size="18.00" fill="#000000">SetWindowTextA@8</text>
</g>
<!-- Le&#45;&gt;SetWindowTextA@8 -->
<g id="edge28" class="edge">
<title>Le&#45;&gt;SetWindowTextA@8</title>
<path fill="none" stroke="#000000" d="M423.2839,-439.3027C448.9371,-438.8595 486.3884,-433.7461 507,-410.0559 604.131,-298.4169 454.1085,-197.3604 543,-79.0559 549.0544,-70.9981 556.8874,-64.4427 565.5413,-59.1111"/>
<polygon fill="#000000" stroke="#000000" points="567.3874,-62.0895 574.4334,-54.1772 563.9911,-55.9686 567.3874,-62.0895"/>
</g>
<!-- fread -->
<g id="node23" class="node">
<title>fread</title>
<polygon fill="#f2f2f2" stroke="#000000" points="616,-708.0559 616,-744.0559 679,-744.0559 679,-708.0559 616,-708.0559"/>
<text text-anchor="middle" x="647.5" y="-721.6559" font-family="Bitstream Vera Sans" font-size="18.00" fill="#000000">fread</text>
</g>
<!-- Le&#45;&gt;fread -->
<g id="edge30" class="edge">
<title>Le&#45;&gt;fread</title>
<path fill="none" stroke="#000000" d="M423.0651,-437.0035C448.556,-437.5909 485.8907,-442.808 507,-466.0559 578.6209,-544.9327 470.1863,-625.2788 543,-703.0559 558.8921,-720.0312 584.2276,-725.9048 605.9718,-727.4748"/>
<polygon fill="#000000" stroke="#000000" points="605.8339,-730.9721 615.9808,-727.924 606.1478,-723.9791 605.8339,-730.9721"/>
</g>
<!-- ArqLista -->
<g id="node24" class="node">
<title>ArqLista</title>
<g id="a_node24"><a xlink:href="Lista.html" xlink:title="\N" target="_top">
<polygon fill="#fda0ea" stroke="#000000" points="334.5,-363.5559 334.5,-400.5559 457.5,-400.5559 457.5,-363.5559 334.5,-363.5559"/>
<text text-anchor="middle" x="396" y="-375.7559" font-family="sans" font-size="26.00" fill="#000000">ArqLista</text>
</a>
</g>
</g>
<!-- ArqLista&#45;&gt;asprintf -->
<g id="edge35" class="edge">
<title>ArqLista&#45;&gt;asprintf</title>
<path fill="none" stroke="#000000" d="M457.5753,-392.6597C474.133,-396.8171 491.685,-402.4671 507,-410.0559 551.7738,-432.2418 595.5263,-470.5154 622.0048,-496.0568"/>
<polygon fill="#000000" stroke="#000000" points="619.7303,-498.7281 629.3255,-503.2207 624.6262,-493.725 619.7303,-498.7281"/>
</g>
<!-- ArqLista&#45;&gt;SendMessageA@16 -->
<g id="edge34" class="edge">
<title>ArqLista&#45;&gt;SendMessageA@16</title>
<path fill="none" stroke="#000000" d="M457.6216,-379.2C475.8446,-375.3234 494.2951,-367.8879 507,-354.0559 574.0227,-281.087 476.1872,-207.2169 543,-134.0559 543.7582,-133.2257 544.5382,-132.4195 545.3386,-131.6368"/>
<polygon fill="#000000" stroke="#000000" points="547.6135,-134.2971 553.0552,-125.2065 543.1322,-128.9195 547.6135,-134.2971"/>
</g>
<!-- Cabecalho -->
<g id="node25" class="node">
<title>Cabecalho</title>
<g id="a_node25"><a xlink:href="Lista.html" xlink:title="\N" target="_top">
<polygon fill="#fda0ea" stroke="#000000" points="56,-419.5559 56,-456.5559 209,-456.5559 209,-419.5559 56,-419.5559"/>
<text text-anchor="middle" x="132.5" y="-431.7559" font-family="sans" font-size="26.00" fill="#000000">Cabecalho</text>
</a>
</g>
</g>
<!-- Cabecalho&#45;&gt;CreateWindowExA@48 -->
<g id="edge36" class="edge">
<title>Cabecalho&#45;&gt;CreateWindowExA@48</title>
<path fill="none" stroke="#000000" d="M209.0627,-433.4731C224.1971,-429.0828 238.597,-421.8216 249,-410.0559 342.9231,-303.8291 191.2225,-199.4112 285,-93.0559 285.6312,-92.34 286.278,-91.6414 286.9394,-90.9599"/>
<polygon fill="#000000" stroke="#000000" points="289.3376,-93.512 294.5514,-84.2888 284.7239,-88.2476 289.3376,-93.512"/>
</g>
<!-- Cabecalho&#45;&gt;GetWindowLongA@8 -->
<g id="edge38" class="edge">
<title>Cabecalho&#45;&gt;GetWindowLongA@8</title>
<path fill="none" stroke="#000000" d="M209.1587,-433.2024C224.1947,-428.8138 238.5295,-421.6216 249,-410.0559 327.8842,-322.9203 206.2353,-235.2993 285,-148.0559 285.6396,-147.3474 286.2944,-146.6561 286.9635,-145.9814"/>
<polygon fill="#000000" stroke="#000000" points="289.3469,-148.548 294.6471,-139.3743 284.7829,-143.2405 289.3469,-148.548"/>
</g>
<!-- MessageBoxA@16 -->
<g id="node26" class="node">
<title>MessageBoxA@16</title>
<polygon fill="#f2f2f2" stroke="#000000" points="305,-158.0559 305,-194.0559 487,-194.0559 487,-158.0559 305,-158.0559"/>
<text text-anchor="middle" x="396" y="-171.6559" font-family="Bitstream Vera Sans" font-size="18.00" fill="#000000">MessageBoxA@16</text>
</g>
<!-- Cabecalho&#45;&gt;MessageBoxA@16 -->
<g id="edge37" class="edge">
<title>Cabecalho&#45;&gt;MessageBoxA@16</title>
<path fill="none" stroke="#000000" d="M209.1102,-432.7917C224.0574,-428.4144 238.3678,-421.3306 249,-410.0559 311.2644,-344.0286 224.5106,-276.7129 285,-209.0559 288.3416,-205.3183 292.0855,-201.9958 296.1215,-199.0429"/>
<polygon fill="#000000" stroke="#000000" points="298.255,-201.8325 304.7811,-193.4862 294.4746,-195.9411 298.255,-201.8325"/>
</g>
<!-- Corpo -->
<g id="node27" class="node">
<title>Corpo</title>
<g id="a_node27"><a xlink:href="Lista.html" xlink:title="\N" target="_top">
<polygon fill="#fda0ea" stroke="#000000" points="86,-307.5559 86,-344.5559 179,-344.5559 179,-307.5559 86,-307.5559"/>
<text text-anchor="middle" x="132.5" y="-319.7559" font-family="sans" font-size="26.00" fill="#000000">Corpo</text>
</a>
</g>
</g>
<!-- Corpo&#45;&gt;CreateWindowExA@48 -->
<g id="edge40" class="edge">
<title>Corpo&#45;&gt;CreateWindowExA@48</title>
<path fill="none" stroke="#000000" d="M139.095,-307.5108C155.9157,-263.0096 204.8372,-149.674 285,-93.0559 287.0908,-91.5792 289.2528,-90.1828 291.4737,-88.8623"/>
<polygon fill="#000000" stroke="#000000" points="293.1396,-91.9405 300.3051,-84.1363 289.8367,-85.7687 293.1396,-91.9405"/>
</g>
<!-- Corpo&#45;&gt;SetWindowTextA@8 -->
<g id="edge39" class="edge">
<title>Corpo&#45;&gt;SetWindowTextA@8</title>
<path fill="none" stroke="#000000" d="M135.6589,-307.464C145.8612,-253.9779 183.3803,-99.6162 285,-38.0559 372.9624,15.2311 496.3336,1.3034 574.0665,-15.7411"/>
<polygon fill="#000000" stroke="#000000" points="573.7269,-19.2529 584.2533,-18.0499 575.2743,-12.426 573.7269,-19.2529"/>
</g>
</g>
</svg>
