<?xml version="1.0" encoding="UTF-8" standalone="no"?>
<!DOCTYPE svg PUBLIC "-//W3C//DTD SVG 1.1//EN"
 "http://www.w3.org/Graphics/SVG/1.1/DTD/svg11.dtd">
<!-- Generated by graphviz version 2.40.1 (20161225.0304)
 -->
<!-- Title: callgraph Pages: 1 -->
<svg width="238pt" height="202pt"
 viewBox="0.00 0.00 342.00 291.50" xmlns="http://www.w3.org/2000/svg" xmlns:xlink="http://www.w3.org/1999/xlink">
<g id="graph0" class="graph" transform="scale(.6944 .6944) rotate(0) translate(4 287.5)">
<title>callgraph</title>
<polygon fill="#ffffff" stroke="transparent" points="-4,4 -4,-287.5 338,-287.5 338,4 -4,4"/>
<g id="clust1" class="cluster">
<title>cluster</title>
<polygon fill="#ffffff" stroke="#ffffff" points="8,-99.5 8,-275.5 129,-275.5 129,-99.5 8,-99.5"/>
<text text-anchor="middle" x="68.5" y="-269.7" font-family="Bitstream Vera Sans" font-size="1.00" fill="#000000">Cores</text>
</g>
<!-- NTrace -->
<g id="node1" class="node">
<title>NTrace</title>
<g id="a_node1"><a xlink:href="Trace.html" xlink:title="\N" target="_top">
<polygon fill="#87cefa" stroke="#000000" points="16,-164 16,-201 121,-201 121,-164 16,-164"/>
<text text-anchor="middle" x="68.5" y="-176.2" font-family="sans" font-size="26.00" fill="#000000">NTrace</text>
</a>
</g>
</g>
<!-- fprintf -->
<g id="node2" class="node">
<title>fprintf</title>
<polygon fill="#f2f2f2" stroke="#000000" points="210,-55.5 210,-91.5 281,-91.5 281,-55.5 210,-55.5"/>
<text text-anchor="middle" x="245.5" y="-69.1" font-family="Bitstream Vera Sans" font-size="18.00" fill="#000000">fprintf</text>
</g>
<!-- NTrace&#45;&gt;fprintf -->
<g id="edge1" class="edge">
<title>NTrace&#45;&gt;fprintf</title>
<path fill="none" stroke="#000000" d="M116.6798,-163.9374C121.1164,-161.1558 125.3192,-158.0192 129,-154.5 148.5406,-135.8176 136.2236,-117.7975 157,-100.5 169.0366,-90.4789 184.7419,-84.1746 199.5755,-80.2095"/>
<polygon fill="#000000" stroke="#000000" points="200.7269,-83.5337 209.6499,-77.8213 199.1122,-76.7224 200.7269,-83.5337"/>
</g>
<!-- GetTempPathA@8 -->
<g id="node3" class="node">
<title>GetTempPathA@8</title>
<polygon fill="#f2f2f2" stroke="#000000" points="157,-220.5 157,-256.5 334,-256.5 334,-220.5 157,-220.5"/>
<text text-anchor="middle" x="245.5" y="-234.1" font-family="Bitstream Vera Sans" font-size="18.00" fill="#000000">GetTempPathA@8</text>
</g>
<!-- NTrace&#45;&gt;GetTempPathA@8 -->
<g id="edge2" class="edge">
<title>NTrace&#45;&gt;GetTempPathA@8</title>
<path fill="none" stroke="#000000" d="M121.1266,-199.1502C139.2591,-204.8871 159.8101,-211.3891 178.9085,-217.4315"/>
<polygon fill="#000000" stroke="#000000" points="177.8555,-220.7693 188.4455,-220.4489 179.9671,-214.0954 177.8555,-220.7693"/>
</g>
<!-- fopen -->
<g id="node4" class="node">
<title>fopen</title>
<polygon fill="#f2f2f2" stroke="#000000" points="211.5,-165.5 211.5,-201.5 279.5,-201.5 279.5,-165.5 211.5,-165.5"/>
<text text-anchor="middle" x="245.5" y="-179.1" font-family="Bitstream Vera Sans" font-size="18.00" fill="#000000">fopen</text>
</g>
<!-- NTrace&#45;&gt;fopen -->
<g id="edge3" class="edge">
<title>NTrace&#45;&gt;fopen</title>
<path fill="none" stroke="#000000" d="M121.1266,-182.7973C146.7172,-182.9419 177.1249,-183.1137 201.4681,-183.2512"/>
<polygon fill="#000000" stroke="#000000" points="201.4782,-186.7512 211.4978,-183.3079 201.5178,-179.7514 201.4782,-186.7512"/>
</g>
<!-- fclose -->
<g id="node5" class="node">
<title>fclose</title>
<polygon fill="#f2f2f2" stroke="#000000" points="210.5,-110.5 210.5,-146.5 280.5,-146.5 280.5,-110.5 210.5,-110.5"/>
<text text-anchor="middle" x="245.5" y="-124.1" font-family="Bitstream Vera Sans" font-size="18.00" fill="#000000">fclose</text>
</g>
<!-- NTrace&#45;&gt;fclose -->
<g id="edge4" class="edge">
<title>NTrace&#45;&gt;fclose</title>
<path fill="none" stroke="#000000" d="M121.1266,-166.4444C146.4732,-158.7116 176.5455,-149.537 200.7701,-142.1464"/>
<polygon fill="#000000" stroke="#000000" points="201.8788,-145.4675 210.4223,-139.2017 199.8361,-138.7721 201.8788,-145.4675"/>
</g>
<!-- fflush -->
<g id="node6" class="node">
<title>fflush</title>
<polygon fill="#f2f2f2" stroke="#000000" points="212.5,-.5 212.5,-36.5 278.5,-36.5 278.5,-.5 212.5,-.5"/>
<text text-anchor="middle" x="245.5" y="-14.1" font-family="Bitstream Vera Sans" font-size="18.00" fill="#000000">fflush</text>
</g>
<!-- NTrace&#45;&gt;fflush -->
<g id="edge5" class="edge">
<title>NTrace&#45;&gt;fflush</title>
<path fill="none" stroke="#000000" d="M118.7032,-163.9351C122.5237,-161.1869 126.0375,-158.0575 129,-154.5 161.007,-116.0646 122.4312,-81.6486 157,-45.5 168.8603,-33.0977 186.2332,-26.3446 202.4526,-22.6856"/>
<polygon fill="#000000" stroke="#000000" points="203.1833,-26.1093 212.3428,-20.7843 201.8618,-19.2351 203.1833,-26.1093"/>
</g>
<!-- Trace -->
<g id="node7" class="node">
<title>Trace</title>
<g id="a_node7"><a xlink:href="Trace.html" xlink:title="\N" target="_top">
<polygon fill="#87cefa" stroke="#000000" points="25.5,-108 25.5,-145 111.5,-145 111.5,-108 25.5,-108"/>
<text text-anchor="middle" x="68.5" y="-120.2" font-family="sans" font-size="26.00" fill="#000000">Trace</text>
</a>
</g>
</g>
<!-- Trace&#45;&gt;fprintf -->
<g id="edge7" class="edge">
<title>Trace&#45;&gt;fprintf</title>
<path fill="none" stroke="#000000" d="M111.7991,-113.5347C138.5975,-105.5104 172.9544,-95.2227 200.1298,-87.0854"/>
<polygon fill="#000000" stroke="#000000" points="201.2138,-90.4144 209.7896,-84.1929 199.2058,-83.7086 201.2138,-90.4144"/>
</g>
<!-- Trace&#45;&gt;GetTempPathA@8 -->
<g id="edge6" class="edge">
<title>Trace&#45;&gt;GetTempPathA@8</title>
<path fill="none" stroke="#000000" d="M111.512,-141.9308C117.8457,-145.4206 123.933,-149.5837 129,-154.5 148.9712,-173.8771 135.8391,-192.4296 157,-210.5 158.7923,-212.0305 160.6686,-213.4776 162.6136,-214.8456"/>
<polygon fill="#000000" stroke="#000000" points="161.1851,-218.077 171.5327,-220.3524 164.8626,-212.1208 161.1851,-218.077"/>
</g>
<!-- Trace&#45;&gt;fopen -->
<g id="edge10" class="edge">
<title>Trace&#45;&gt;fopen</title>
<path fill="none" stroke="#000000" d="M111.6841,-140.7487C126.0865,-145.4747 142.2255,-150.7422 157,-155.5 171.5821,-160.1958 187.5379,-165.2651 201.8363,-169.783"/>
<polygon fill="#000000" stroke="#000000" points="200.8435,-173.1398 211.4333,-172.8114 202.95,-166.4643 200.8435,-173.1398"/>
</g>
<!-- Trace&#45;&gt;fclose -->
<g id="edge9" class="edge">
<title>Trace&#45;&gt;fclose</title>
<path fill="none" stroke="#000000" d="M111.7991,-126.9893C138.6614,-127.2928 173.1184,-127.6821 200.3243,-127.9895"/>
<polygon fill="#000000" stroke="#000000" points="200.3263,-131.4897 210.3652,-128.103 200.4054,-124.4901 200.3263,-131.4897"/>
</g>
<!-- Trace&#45;&gt;fflush -->
<g id="edge8" class="edge">
<title>Trace&#45;&gt;fflush</title>
<path fill="none" stroke="#000000" d="M84.2917,-107.8403C100.7225,-89.5304 128.0571,-62.0196 157,-45.5 170.8291,-37.6068 187.2175,-31.7781 202.1099,-27.5986"/>
<polygon fill="#000000" stroke="#000000" points="203.35,-30.8915 212.1311,-24.9634 201.5697,-24.1217 203.35,-30.8915"/>
</g>
<!-- Tmp -->
<g id="node8" class="node">
<title>Tmp</title>
<g id="a_node8"><a xlink:href="Trace.html" xlink:title="\N" target="_top">
<polygon fill="#87cefa" stroke="#000000" points="31.5,-220 31.5,-257 105.5,-257 105.5,-220 31.5,-220"/>
<text text-anchor="middle" x="68.5" y="-232.2" font-family="sans" font-size="26.00" fill="#000000">Tmp</text>
</a>
</g>
</g>
<!-- Tmp&#45;&gt;GetTempPathA@8 -->
<g id="edge11" class="edge">
<title>Tmp&#45;&gt;GetTempPathA@8</title>
<path fill="none" stroke="#000000" d="M105.605,-238.5C117.7949,-238.5 131.9756,-238.5 146.5395,-238.5"/>
<polygon fill="#000000" stroke="#000000" points="146.6638,-242.0001 156.6638,-238.5 146.6637,-235.0001 146.6638,-242.0001"/>
</g>
</g>
</svg>
